Sender: LSF System <lsfadmin@eu-ms-025-16>
Subject: Job 191545709[2]: <testjob[1-4]> in cluster <euler> Done

Job <testjob[1-4]> was submitted from host <eu-login-26> by user <jarunanp> in cluster <euler> at Thu Nov 11 14:52:32 2021
Job was executed on host(s) <eu-ms-025-16>, in queue <normal.4h>, as user <jarunanp> in cluster <euler> at Thu Nov 11 14:53:03 2021
</cluster/home/jarunanp> was used as the home directory.
</cluster/project/sis/cdss/jarunanp/21_06_wiki_tutorials/hpc-examples/job_arrays/ex2> was used as the working directory.
Started at Thu Nov 11 14:53:03 2021
Terminated at Thu Nov 11 14:53:04 2021
Results reported at Thu Nov 11 14:53:04 2021

Your job looked like:

------------------------------------------------------------
# LSBATCH: User input
awk -v jindex=$LSB_JOBINDEX 'NR==jindex' commands.txt | bash
------------------------------------------------------------

Successfully completed.

Resource usage summary:

    CPU time :                                   0.16 sec.
    Max Memory :                                 6 MB
    Average Memory :                             -
    Total Requested Memory :                     1024.00 MB
    Delta Memory :                               1018.00 MB
    Max Swap :                                   -
    Max Processes :                              -
    Max Threads :                                -
    Run time :                                   26 sec.
    Turnaround time :                            32 sec.

The output (if any) follows:

hello2
Sender: LSF System <lsfadmin@eu-ms-017-29>
Subject: Job 191545709[4]: <testjob[1-4]> in cluster <euler> Done

Job <testjob[1-4]> was submitted from host <eu-login-26> by user <jarunanp> in cluster <euler> at Thu Nov 11 14:52:32 2021
Job was executed on host(s) <eu-ms-017-29>, in queue <normal.4h>, as user <jarunanp> in cluster <euler> at Thu Nov 11 14:53:03 2021
</cluster/home/jarunanp> was used as the home directory.
</cluster/project/sis/cdss/jarunanp/21_06_wiki_tutorials/hpc-examples/job_arrays/ex2> was used as the working directory.
Started at Thu Nov 11 14:53:03 2021
Terminated at Thu Nov 11 14:53:04 2021
Results reported at Thu Nov 11 14:53:04 2021

Your job looked like:

------------------------------------------------------------
# LSBATCH: User input
awk -v jindex=$LSB_JOBINDEX 'NR==jindex' commands.txt | bash
------------------------------------------------------------

Successfully completed.

Resource usage summary:

    CPU time :                                   0.17 sec.
    Max Memory :                                 6 MB
    Average Memory :                             -
    Total Requested Memory :                     1024.00 MB
    Delta Memory :                               1018.00 MB
    Max Swap :                                   -
    Max Processes :                              -
    Max Threads :                                -
    Run time :                                   27 sec.
    Turnaround time :                            32 sec.

The output (if any) follows:

hello3
Sender: LSF System <lsfadmin@eu-ms-022-21>
Subject: Job 191545709[1]: <testjob[1-4]> in cluster <euler> Done

Job <testjob[1-4]> was submitted from host <eu-login-26> by user <jarunanp> in cluster <euler> at Thu Nov 11 14:52:32 2021
Job was executed on host(s) <eu-ms-022-21>, in queue <normal.4h>, as user <jarunanp> in cluster <euler> at Thu Nov 11 14:53:03 2021
</cluster/home/jarunanp> was used as the home directory.
</cluster/project/sis/cdss/jarunanp/21_06_wiki_tutorials/hpc-examples/job_arrays/ex2> was used as the working directory.
Started at Thu Nov 11 14:53:03 2021
Terminated at Thu Nov 11 14:53:04 2021
Results reported at Thu Nov 11 14:53:04 2021

Your job looked like:

------------------------------------------------------------
# LSBATCH: User input
awk -v jindex=$LSB_JOBINDEX 'NR==jindex' commands.txt | bash
------------------------------------------------------------

Successfully completed.

Resource usage summary:

    CPU time :                                   0.16 sec.
    Max Memory :                                 11 MB
    Average Memory :                             -
    Total Requested Memory :                     1024.00 MB
    Delta Memory :                               1013.00 MB
    Max Swap :                                   -
    Max Processes :                              -
    Max Threads :                                -
    Run time :                                   23 sec.
    Turnaround time :                            32 sec.

The output (if any) follows:

hello1
